http://app.墨刀.com/app/8EOiFWNtRoNozF8lNW6M
密码 123123
友盟 Android  54ed7a6afd98c5f479000a9f

1、思想引领：ID=31
2、创业中心：ID=14
创业中心内部有4个子分类，在进入创业中心之后，ID传14获取最新的前5条记录
创业中心的4个子分类为：创业新闻 id=15，创业指导 id=16, 创业项目 id=17, 创业导师 id=10
3、政策通知 id=116
4、技能培训通创业中心一样，技能培训 id=19，
技能培训的三个子分类：培训项目 id=20, 培训机构 id=21, 证书介绍 id=120
5、就业指导 id=26
就业指导的三个子分类 就业政策 id= 27, 就业心态 id=28,  就业培训 id=29
6、大学风采 id=5
7、平台新闻 id=35
8、社团活动id=36
9、校园风云id=22，校园风云的三个子分类为：优秀大学生 id=23, 大学生风采 id=24, 大学生赛事活动 id=25
10、爱心助学id=32

个人账号
suihuan111
suihuan


随欢经理IOS 2015/3/16 14:01:29
企业账号
admin
dxsapp123

53000-8000-3000=42000  /2*0.8=16800?


30000-2000）/2*0.8=11200

随欢经理IOS 11:16:46
1.在投简历的时候，招聘企业要能收到推送通知
2.在发送面试邀请的时候，个人要收到推送通知
3.增加个人信息编辑接口（修改昵称、头像）
4.在企业查看个人简历的时候，需要判断该企业是不是已经购买这个简历 只有购买之后才能查看简历的联系方式
5.个人简历里面，缺少联系方式的字段


QQ号码：3116290985 密码：qazwsx123
百度账号：schoolapp@qq.com 密码 qazwsx123
360的账号  15911654506
密码qazwsx123


http://www.dxsapp.com/front/app_job_info.html?id=xxxx